%YAML 1.1
%TAG !u! tag:unity3d.com,2011:
--- !u!21 &2100000
Material:
  serializedVersion: 3
  m_ObjectHideFlags: 0
  m_PrefabParentObject: {fileID: 0}
  m_PrefabInternal: {fileID: 0}
  m_Name: 01_OrnateDoorhandle
  m_Shader: {fileID: 4800000, guid: 6b5b0b9a950067949a4ba29a51af5fba, type: 3}
  m_ShaderKeywords: []
  m_CustomRenderQueue: -1
  m_SavedProperties:
    serializedVersion: 2
    m_TexEnvs:
      data:
        first:
          name: _MainTex
        second:
          m_Texture: {fileID: 2800000, guid: c4d876b1ea366d5408a0d33bbf8f3bd5, type: 3}
          m_Scale: {x: 1, y: 1}
          m_Offset: {x: 0, y: 0}
      data:
        first:
          name: _BumpMap
        second:
          m_Texture: {fileID: 2800000, guid: 09938f8835e18c84998d7f0d82933ba9, type: 3}
          m_Scale: {x: 1, y: 1}
          m_Offset: {x: 0, y: 0}
      data:
        first:
          name: _Cube
        second:
          m_Texture: {fileID: 8900000, guid: 1d5d05a74e18869458406270a6ba76c3, type: 2}
          m_Scale: {x: 1, y: 1}
          m_Offset: {x: 0, y: 0}
      data:
        first:
          name: _EmissiveMap
        second:
          m_Texture: {fileID: 0}
          m_Scale: {x: 1, y: 1}
          m_Offset: {x: 0, y: 0}
    m_Floats:
      data:
        first:
          name: _Shininess
        second: 1
      data:
        first:
          name: _RimPower
        second: 3
      data:
        first:
          name: _Float
        second: 1.20000005
    m_Colors:
      data:
        first:
          name: _Color
        second: {r: .183823526, g: .183823526, b: .183823526, a: 1}
      data:
        first:
          name: _SpecColor
        second: {r: .426470578, g: .426470578, b: .426470578, a: 1}
      data:
        first:
          name: _ReflectColor
        second: {r: .433823526, g: .433823526, b: .433823526, a: .56078434}
      data:
        first:
          name: _RimColor
        second: {r: .25999999, g: .189999998, b: .159999996, a: 0}
