%YAML 1.1
%TAG !u! tag:unity3d.com,2011:
--- !u!29 &1
SceneSettings:
  m_ObjectHideFlags: 0
  m_PVSData: 
  m_PVSObjectsArray: []
  m_PVSPortalsArray: []
  m_OcclusionBakeSettings:
    smallestOccluder: 5
    smallestHole: .25
    backfaceThreshold: 100
--- !u!104 &2
RenderSettings:
  m_Fog: 0
  m_FogColor: {r: .5, g: .5, b: .5, a: 1}
  m_FogMode: 3
  m_FogDensity: .00999999978
  m_LinearFogStart: 0
  m_LinearFogEnd: 300
  m_AmbientLight: {r: .200000003, g: .200000003, b: .200000003, a: 1}
  m_SkyboxMaterial: {fileID: 0}
  m_HaloStrength: .5
  m_FlareStrength: 1
  m_FlareFadeSpeed: 3
  m_HaloTexture: {fileID: 0}
  m_SpotCookie: {fileID: 0}
  m_ObjectHideFlags: 0
--- !u!127 &3
LevelGameManager:
  m_ObjectHideFlags: 0
--- !u!157 &4
LightmapSettings:
  m_ObjectHideFlags: 0
  m_LightProbes: {fileID: 0}
  m_Lightmaps: []
  m_LightmapsMode: 1
  m_BakedColorSpace: 0
  m_UseDualLightmapsInForward: 0
  m_LightmapEditorSettings:
    m_Resolution: 50
    m_LastUsedResolution: 0
    m_TextureWidth: 1024
    m_TextureHeight: 1024
    m_BounceBoost: 1
    m_BounceIntensity: 1
    m_SkyLightColor: {r: .860000014, g: .930000007, b: 1, a: 1}
    m_SkyLightIntensity: 0
    m_Quality: 0
    m_Bounces: 1
    m_FinalGatherRays: 1000
    m_FinalGatherContrastThreshold: .0500000007
    m_FinalGatherGradientThreshold: 0
    m_FinalGatherInterpolationPoints: 15
    m_AOAmount: 0
    m_AOMaxDistance: .100000001
    m_AOContrast: 1
    m_LODSurfaceMappingDistance: 1
    m_Padding: 0
    m_TextureCompression: 0
    m_LockAtlas: 0
--- !u!196 &5
NavMeshSettings:
  m_ObjectHideFlags: 0
  m_BuildSettings:
    agentRadius: .5
    agentHeight: 2
    agentSlope: 45
    agentClimb: .400000006
    ledgeDropHeight: 0
    maxJumpAcrossDistance: 0
    accuratePlacement: 0
    minRegionArea: 2
    widthInaccuracy: 16.666666
    heightInaccuracy: 10
  m_NavMesh: {fileID: 0}
--- !u!1 &885229460
GameObject:
  m_ObjectHideFlags: 0
  m_PrefabParentObject: {fileID: 0}
  m_PrefabInternal: {fileID: 0}
  serializedVersion: 4
  m_Component:
  - 4: {fileID: 885229464}
  - 33: {fileID: 885229463}
  - 23: {fileID: 885229461}
  - 114: {fileID: 885229465}
  m_Layer: 0
  m_Name: Plane
  m_TagString: Untagged
  m_Icon: {fileID: 0}
  m_NavMeshLayer: 0
  m_StaticEditorFlags: 0
  m_IsActive: 1
--- !u!23 &885229461
Renderer:
  m_ObjectHideFlags: 0
  m_PrefabParentObject: {fileID: 0}
  m_PrefabInternal: {fileID: 0}
  m_GameObject: {fileID: 885229460}
  m_Enabled: 1
  m_CastShadows: 1
  m_ReceiveShadows: 1
  m_LightmapIndex: 255
  m_LightmapTilingOffset: {x: 1, y: 1, z: 0, w: 0}
  m_Materials:
  - {fileID: 2100000, guid: 2ce1ad742aae3554997292eed468d59f, type: 2}
  m_SubsetIndices: 
  m_StaticBatchRoot: {fileID: 0}
  m_UseLightProbes: 0
  m_LightProbeAnchor: {fileID: 0}
  m_ScaleInLightmap: 1
  m_SortingLayerID: 0
  m_SortingOrder: 0
--- !u!33 &885229463
MeshFilter:
  m_ObjectHideFlags: 0
  m_PrefabParentObject: {fileID: 0}
  m_PrefabInternal: {fileID: 0}
  m_GameObject: {fileID: 885229460}
  m_Mesh: {fileID: 10209, guid: 0000000000000000e000000000000000, type: 0}
--- !u!4 &885229464
Transform:
  m_ObjectHideFlags: 0
  m_PrefabParentObject: {fileID: 0}
  m_PrefabInternal: {fileID: 0}
  m_GameObject: {fileID: 885229460}
  m_LocalRotation: {x: 1.50458959e-06, y: -.707106829, z: .707106769, w: -1.67618032e-06}
  m_LocalPosition: {x: -.797166705, y: .235413834, z: .0173602067}
  m_LocalScale: {x: .0377813019, y: .0630935431, z: .0387453288}
  m_Children: []
  m_Father: {fileID: 1850072446}
  m_RootOrder: 3
--- !u!114 &885229465
MonoBehaviour:
  m_ObjectHideFlags: 0
  m_PrefabParentObject: {fileID: 0}
  m_PrefabInternal: {fileID: 0}
  m_GameObject: {fileID: 885229460}
  m_Enabled: 1
  m_EditorHideFlags: 0
  m_Script: {fileID: 11500000, guid: 192a83352fa6e9941a037d820058e12c, type: 3}
  m_Name: 
  m_EditorClassIdentifier: 
  scrollSpeed: 1
  MainoffsetX: 0
  MainoffsetY: -1.50999999
  UseCustomTex: 0
  CustomTexName: 
--- !u!1 &916998790
GameObject:
  m_ObjectHideFlags: 0
  m_PrefabParentObject: {fileID: 0}
  m_PrefabInternal: {fileID: 0}
  serializedVersion: 4
  m_Component:
  - 4: {fileID: 916998794}
  - 33: {fileID: 916998793}
  - 23: {fileID: 916998792}
  - 114: {fileID: 916998791}
  m_Layer: 0
  m_Name: Plane2
  m_TagString: Untagged
  m_Icon: {fileID: 0}
  m_NavMeshLayer: 0
  m_StaticEditorFlags: 0
  m_IsActive: 1
--- !u!114 &916998791
MonoBehaviour:
  m_ObjectHideFlags: 0
  m_PrefabParentObject: {fileID: 0}
  m_PrefabInternal: {fileID: 0}
  m_GameObject: {fileID: 916998790}
  m_Enabled: 1
  m_EditorHideFlags: 0
  m_Script: {fileID: 11500000, guid: 192a83352fa6e9941a037d820058e12c, type: 3}
  m_Name: 
  m_EditorClassIdentifier: 
  scrollSpeed: 1
  MainoffsetX: -.100000001
  MainoffsetY: .0500000007
  UseCustomTex: 0
  CustomTexName: 
--- !u!23 &916998792
Renderer:
  m_ObjectHideFlags: 0
  m_PrefabParentObject: {fileID: 0}
  m_PrefabInternal: {fileID: 0}
  m_GameObject: {fileID: 916998790}
  m_Enabled: 1
  m_CastShadows: 1
  m_ReceiveShadows: 1
  m_LightmapIndex: 255
  m_LightmapTilingOffset: {x: 1, y: 1, z: 0, w: 0}
  m_Materials:
  - {fileID: 2100000, guid: 553dc1370e05a3d45b361fe9c550db19, type: 2}
  m_SubsetIndices: 
  m_StaticBatchRoot: {fileID: 0}
  m_UseLightProbes: 0
  m_LightProbeAnchor: {fileID: 0}
  m_ScaleInLightmap: 1
  m_SortingLayerID: 0
  m_SortingOrder: 0
--- !u!33 &916998793
MeshFilter:
  m_ObjectHideFlags: 0
  m_PrefabParentObject: {fileID: 0}
  m_PrefabInternal: {fileID: 0}
  m_GameObject: {fileID: 916998790}
  m_Mesh: {fileID: 10209, guid: 0000000000000000e000000000000000, type: 0}
--- !u!4 &916998794
Transform:
  m_ObjectHideFlags: 0
  m_PrefabParentObject: {fileID: 0}
  m_PrefabInternal: {fileID: 0}
  m_GameObject: {fileID: 916998790}
  m_LocalRotation: {x: 1.50458959e-06, y: -.707106829, z: .707106769, w: -1.67618032e-06}
  m_LocalPosition: {x: -.418361992, y: .316542894, z: .0962509662}
  m_LocalScale: {x: .0377813019, y: .0630935431, z: .0736509413}
  m_Children: []
  m_Father: {fileID: 1850072446}
  m_RootOrder: 4
--- !u!1 &1072395334
GameObject:
  m_ObjectHideFlags: 0
  m_PrefabParentObject: {fileID: 0}
  m_PrefabInternal: {fileID: 0}
  serializedVersion: 4
  m_Component:
  - 4: {fileID: 1072395339}
  - 20: {fileID: 1072395338}
  - 92: {fileID: 1072395337}
  - 124: {fileID: 1072395336}
  - 81: {fileID: 1072395335}
  - 114: {fileID: 1072395340}
  m_Layer: 0
  m_Name: Main Camera
  m_TagString: MainCamera
  m_Icon: {fileID: 0}
  m_NavMeshLayer: 0
  m_StaticEditorFlags: 0
  m_IsActive: 1
--- !u!81 &1072395335
AudioListener:
  m_ObjectHideFlags: 0
  m_PrefabParentObject: {fileID: 0}
  m_PrefabInternal: {fileID: 0}
  m_GameObject: {fileID: 1072395334}
  m_Enabled: 1
--- !u!124 &1072395336
Behaviour:
  m_ObjectHideFlags: 0
  m_PrefabParentObject: {fileID: 0}
  m_PrefabInternal: {fileID: 0}
  m_GameObject: {fileID: 1072395334}
  m_Enabled: 1
--- !u!92 &1072395337
Behaviour:
  m_ObjectHideFlags: 0
  m_PrefabParentObject: {fileID: 0}
  m_PrefabInternal: {fileID: 0}
  m_GameObject: {fileID: 1072395334}
  m_Enabled: 1
--- !u!20 &1072395338
Camera:
  m_ObjectHideFlags: 0
  m_PrefabParentObject: {fileID: 0}
  m_PrefabInternal: {fileID: 0}
  m_GameObject: {fileID: 1072395334}
  m_Enabled: 1
  serializedVersion: 2
  m_ClearFlags: 1
  m_BackGroundColor: {r: .110294104, g: .110294104, b: .110294104, a: .0196078438}
  m_NormalizedViewPortRect:
    serializedVersion: 2
    x: 0
    y: 0
    width: 1
    height: 1
  near clip plane: .300000012
  far clip plane: 1000
  field of view: 60
  orthographic: 0
  orthographic size: 100
  m_Depth: -1
  m_CullingMask:
    serializedVersion: 2
    m_Bits: 4294967295
  m_RenderingPath: -1
  m_TargetTexture: {fileID: 0}
  m_TargetDisplay: 0
  m_HDR: 0
  m_OcclusionCulling: 1
  m_StereoConvergence: 10
  m_StereoSeparation: .0219999999
--- !u!4 &1072395339
Transform:
  m_ObjectHideFlags: 0
  m_PrefabParentObject: {fileID: 0}
  m_PrefabInternal: {fileID: 0}
  m_GameObject: {fileID: 1072395334}
  m_LocalRotation: {x: .127941698, y: 0, z: 0, w: .991781712}
  m_LocalPosition: {x: -22.388504, y: 1.00594354, z: 10.417284}
  m_LocalScale: {x: 1, y: 1, z: 1}
  m_Children: []
  m_Father: {fileID: 0}
  m_RootOrder: 0
--- !u!114 &1072395340
MonoBehaviour:
  m_ObjectHideFlags: 0
  m_PrefabParentObject: {fileID: 0}
  m_PrefabInternal: {fileID: 0}
  m_GameObject: {fileID: 1072395334}
  m_Enabled: 1
  m_EditorHideFlags: 0
  m_Script: {fileID: 11500000, guid: 8d47995718871f6408a7b9dd93399cee, type: 3}
  m_Name: 
  m_EditorClassIdentifier: 
  target: {fileID: 916998794}
  distance: 11
  targetOffset: {x: 0, y: 0, z: 0}
  xSpeed: 250
  ySpeed: 120
  yMinLimit: -20
  yMaxLimit: 80
--- !u!1 &1144863011
GameObject:
  m_ObjectHideFlags: 0
  m_PrefabParentObject: {fileID: 100002, guid: 6022821a30f1a3c44a65bbe690dff0db, type: 3}
  m_PrefabInternal: {fileID: 0}
  serializedVersion: 4
  m_Component:
  - 4: {fileID: 1144863012}
  - 33: {fileID: 1144863014}
  - 23: {fileID: 1144863013}
  m_Layer: 0
  m_Name: Box01
  m_TagString: Untagged
  m_Icon: {fileID: 0}
  m_NavMeshLayer: 0
  m_StaticEditorFlags: 0
  m_IsActive: 1
--- !u!4 &1144863012
Transform:
  m_ObjectHideFlags: 0
  m_PrefabParentObject: {fileID: 400002, guid: 6022821a30f1a3c44a65bbe690dff0db, type: 3}
  m_PrefabInternal: {fileID: 0}
  m_GameObject: {fileID: 1144863011}
  m_LocalRotation: {x: -.651487887, y: -.274888396, z: -.274888337, w: .651487887}
  m_LocalPosition: {x: .000224436677, y: 5.00018432e-05, z: .00269456394}
  m_LocalScale: {x: .513389826, y: .556550801, z: 3.47520661}
  m_Children: []
  m_Father: {fileID: 1850072446}
  m_RootOrder: 0
--- !u!23 &1144863013
Renderer:
  m_ObjectHideFlags: 0
  m_PrefabParentObject: {fileID: 2300002, guid: 6022821a30f1a3c44a65bbe690dff0db,
    type: 3}
  m_PrefabInternal: {fileID: 0}
  m_GameObject: {fileID: 1144863011}
  m_Enabled: 1
  m_CastShadows: 1
  m_ReceiveShadows: 1
  m_LightmapIndex: 255
  m_LightmapTilingOffset: {x: 1, y: 1, z: 0, w: 0}
  m_Materials:
  - {fileID: 2100000, guid: bcbd6ecb98d148b4aaa11ed58a4e236f, type: 2}
  m_SubsetIndices: 
  m_StaticBatchRoot: {fileID: 0}
  m_UseLightProbes: 0
  m_LightProbeAnchor: {fileID: 0}
  m_ScaleInLightmap: 1
  m_SortingLayerID: 0
  m_SortingOrder: 0
--- !u!33 &1144863014
MeshFilter:
  m_ObjectHideFlags: 0
  m_PrefabParentObject: {fileID: 3300002, guid: 6022821a30f1a3c44a65bbe690dff0db,
    type: 3}
  m_PrefabInternal: {fileID: 0}
  m_GameObject: {fileID: 1144863011}
  m_Mesh: {fileID: 4300000, guid: 6022821a30f1a3c44a65bbe690dff0db, type: 3}
--- !u!1 &1483947679
GameObject:
  m_ObjectHideFlags: 0
  m_PrefabParentObject: {fileID: 100004, guid: 6022821a30f1a3c44a65bbe690dff0db, type: 3}
  m_PrefabInternal: {fileID: 0}
  serializedVersion: 4
  m_Component:
  - 4: {fileID: 1483947680}
  - 33: {fileID: 1483947682}
  - 23: {fileID: 1483947681}
  - 114: {fileID: 1483947683}
  m_Layer: 0
  m_Name: Cone
  m_TagString: Untagged
  m_Icon: {fileID: 0}
  m_NavMeshLayer: 0
  m_StaticEditorFlags: 0
  m_IsActive: 1
--- !u!4 &1483947680
Transform:
  m_ObjectHideFlags: 0
  m_PrefabParentObject: {fileID: 400004, guid: 6022821a30f1a3c44a65bbe690dff0db, type: 3}
  m_PrefabInternal: {fileID: 0}
  m_GameObject: {fileID: 1483947679}
  m_LocalRotation: {x: -.707106829, y: 0, z: -0, w: .707106829}
  m_LocalPosition: {x: -.283864737, y: .206558496, z: -.00389869977}
  m_LocalScale: {x: 1, y: 1, z: 1.2854054}
  m_Children: []
  m_Father: {fileID: 1850072446}
  m_RootOrder: 1
--- !u!23 &1483947681
Renderer:
  m_ObjectHideFlags: 0
  m_PrefabParentObject: {fileID: 2300004, guid: 6022821a30f1a3c44a65bbe690dff0db,
    type: 3}
  m_PrefabInternal: {fileID: 0}
  m_GameObject: {fileID: 1483947679}
  m_Enabled: 1
  m_CastShadows: 1
  m_ReceiveShadows: 1
  m_LightmapIndex: 255
  m_LightmapTilingOffset: {x: 1, y: 1, z: 0, w: 0}
  m_Materials:
  - {fileID: 2100000, guid: bcbd6ecb98d148b4aaa11ed58a4e236f, type: 2}
  m_SubsetIndices: 
  m_StaticBatchRoot: {fileID: 0}
  m_UseLightProbes: 0
  m_LightProbeAnchor: {fileID: 0}
  m_ScaleInLightmap: 1
  m_SortingLayerID: 0
  m_SortingOrder: 0
--- !u!33 &1483947682
MeshFilter:
  m_ObjectHideFlags: 0
  m_PrefabParentObject: {fileID: 3300004, guid: 6022821a30f1a3c44a65bbe690dff0db,
    type: 3}
  m_PrefabInternal: {fileID: 0}
  m_GameObject: {fileID: 1483947679}
  m_Mesh: {fileID: 4300004, guid: 6022821a30f1a3c44a65bbe690dff0db, type: 3}
--- !u!114 &1483947683
MonoBehaviour:
  m_ObjectHideFlags: 0
  m_PrefabParentObject: {fileID: 0}
  m_PrefabInternal: {fileID: 0}
  m_GameObject: {fileID: 1483947679}
  m_Enabled: 1
  m_EditorHideFlags: 0
  m_Script: {fileID: 11500000, guid: 192a83352fa6e9941a037d820058e12c, type: 3}
  m_Name: 
  m_EditorClassIdentifier: 
  scrollSpeed: 1
  MainoffsetX: 0
  MainoffsetY: -.300000012
  UseCustomTex: 0
  CustomTexName: 
--- !u!1 &1850072445
GameObject:
  m_ObjectHideFlags: 0
  m_PrefabParentObject: {fileID: 100000, guid: 6022821a30f1a3c44a65bbe690dff0db, type: 3}
  m_PrefabInternal: {fileID: 0}
  serializedVersion: 4
  m_Component:
  - 4: {fileID: 1850072446}
  m_Layer: 0
  m_Name: Objects
  m_TagString: Untagged
  m_Icon: {fileID: 0}
  m_NavMeshLayer: 0
  m_StaticEditorFlags: 0
  m_IsActive: 1
--- !u!4 &1850072446
Transform:
  m_ObjectHideFlags: 0
  m_PrefabParentObject: {fileID: 400000, guid: 6022821a30f1a3c44a65bbe690dff0db, type: 3}
  m_PrefabInternal: {fileID: 0}
  m_GameObject: {fileID: 1850072445}
  m_LocalRotation: {x: 0, y: 0, z: 0, w: 1}
  m_LocalPosition: {x: -16.8614044, y: -6.58882427, z: 21.4044895}
  m_LocalScale: {x: 15.8494825, y: 15.8494825, z: 15.8494825}
  m_Children:
  - {fileID: 1144863012}
  - {fileID: 1483947680}
  - {fileID: 1957775863}
  - {fileID: 885229464}
  - {fileID: 916998794}
  m_Father: {fileID: 0}
  m_RootOrder: 1
--- !u!1 &1957775862
GameObject:
  m_ObjectHideFlags: 0
  m_PrefabParentObject: {fileID: 100008, guid: 6022821a30f1a3c44a65bbe690dff0db, type: 3}
  m_PrefabInternal: {fileID: 0}
  serializedVersion: 4
  m_Component:
  - 4: {fileID: 1957775863}
  - 33: {fileID: 1957775865}
  - 23: {fileID: 1957775864}
  m_Layer: 0
  m_Name: Cylinder02
  m_TagString: Untagged
  m_Icon: {fileID: 0}
  m_NavMeshLayer: 0
  m_StaticEditorFlags: 0
  m_IsActive: 1
--- !u!4 &1957775863
Transform:
  m_ObjectHideFlags: 0
  m_PrefabParentObject: {fileID: 400008, guid: 6022821a30f1a3c44a65bbe690dff0db, type: 3}
  m_PrefabInternal: {fileID: 0}
  m_GameObject: {fileID: 1957775862}
  m_LocalRotation: {x: -.707106829, y: 0, z: -0, w: .707106829}
  m_LocalPosition: {x: -.493552923, y: 0, z: .00164794922}
  m_LocalScale: {x: 1, y: 1, z: .335052848}
  m_Children: []
  m_Father: {fileID: 1850072446}
  m_RootOrder: 2
--- !u!23 &1957775864
Renderer:
  m_ObjectHideFlags: 0
  m_PrefabParentObject: {fileID: 2300008, guid: 6022821a30f1a3c44a65bbe690dff0db,
    type: 3}
  m_PrefabInternal: {fileID: 0}
  m_GameObject: {fileID: 1957775862}
  m_Enabled: 1
  m_CastShadows: 1
  m_ReceiveShadows: 1
  m_LightmapIndex: 255
  m_LightmapTilingOffset: {x: 1, y: 1, z: 0, w: 0}
  m_Materials:
  - {fileID: 2100000, guid: 2ce1ad742aae3554997292eed468d59f, type: 2}
  m_SubsetIndices: 
  m_StaticBatchRoot: {fileID: 0}
  m_UseLightProbes: 0
  m_LightProbeAnchor: {fileID: 0}
  m_ScaleInLightmap: 1
  m_SortingLayerID: 0
  m_SortingOrder: 0
--- !u!33 &1957775865
MeshFilter:
  m_ObjectHideFlags: 0
  m_PrefabParentObject: {fileID: 3300008, guid: 6022821a30f1a3c44a65bbe690dff0db,
    type: 3}
  m_PrefabInternal: {fileID: 0}
  m_GameObject: {fileID: 1957775862}
  m_Mesh: {fileID: 4300006, guid: 6022821a30f1a3c44a65bbe690dff0db, type: 3}
