%YAML 1.1
%TAG !u! tag:unity3d.com,2011:
--- !u!21 &2100000
Material:
  serializedVersion: 3
  m_ObjectHideFlags: 0
  m_PrefabParentObject: {fileID: 0}
  m_PrefabInternal: {fileID: 0}
  m_Name: Glow
  m_Shader: {fileID: 4800000, guid: 80979ccfe64a90c49b9fd932c1acb075, type: 3}
  m_ShaderKeywords: []
  m_CustomRenderQueue: -1
  m_SavedProperties:
    serializedVersion: 2
    m_TexEnvs:
      data:
        first:
          name: _MainTex
        second:
          m_Texture: {fileID: 2800000, guid: 4b522db782223404094aced960740d95, type: 3}
          m_Scale: {x: 1, y: 1}
          m_Offset: {x: 0, y: -0}
      data:
        first:
          name: _BumpMap
        second:
          m_Texture: {fileID: 2800000, guid: 2561b5b6d6e031d43bdb331d6b38c5ee, type: 3}
          m_Scale: {x: 1, y: 1}
          m_Offset: {x: 0, y: 0}
      data:
        first:
          name: _Mask
        second:
          m_Texture: {fileID: 2800000, guid: defa5ad709775b64285f14a542b75920, type: 3}
          m_Scale: {x: 1, y: 1}
          m_Offset: {x: 0, y: 0}
      data:
        first:
          name: _ReflectionTex
        second:
          m_Texture: {fileID: 0}
          m_Scale: {x: 1, y: 1}
          m_Offset: {x: 0, y: 0}
      data:
        first:
          name: _ShoreTex
        second:
          m_Texture: {fileID: 0}
          m_Scale: {x: 1, y: 1}
          m_Offset: {x: 0, y: 0}
      data:
        first:
          name: _RefractTex
        second:
          m_Texture: {fileID: 2800000, guid: 4d41f735e4e2ea44e914666ea6674b70, type: 3}
          m_Scale: {x: 1, y: 1}
          m_Offset: {x: 0, y: 0}
      data:
        first:
          name: _ParallaxMap
        second:
          m_Texture: {fileID: 0}
          m_Scale: {x: 1, y: 1}
          m_Offset: {x: 0, y: 0}
      data:
        first:
          name: _Noise
        second:
          m_Texture: {fileID: 2800000, guid: 23a02ac18d11c9ffa0009c58a8ad6659, type: 3}
          m_Scale: {x: 1, y: 1}
          m_Offset: {x: 0, y: 0}
      data:
        first:
          name: _FallOff
        second:
          m_Texture: {fileID: 8900000, guid: 6c11c6ccbb93b4147b3ada5d2bd70f18, type: 2}
          m_Scale: {x: 1, y: 1}
          m_Offset: {x: 0, y: 0}
      data:
        first:
          name: _ReflectTex
        second:
          m_Texture: {fileID: 0}
          m_Scale: {x: 1, y: 1}
          m_Offset: {x: 0, y: 0}
      data:
        first:
          name: _RampTex
        second:
          m_Texture: {fileID: 2800000, guid: e146959306087aa4da2ce68867968f7c, type: 3}
          m_Scale: {x: 1, y: 1}
          m_Offset: {x: 0, y: 0}
    m_Floats:
      data:
        first:
          name: _Cutoff
        second: .290746272
      data:
        first:
          name: _Shininess
        second: .524208724
      data:
        first:
          name: _InvFade
        second: 1
      data:
        first:
          name: _FresnelScale
        second: .75
      data:
        first:
          name: _GerstnerIntensity
        second: 1
      data:
        first:
          name: _Parallax
        second: .0199999996
      data:
        first:
          name: _RefractTexTiling
        second: .980000019
      data:
        first:
          name: _Outline
        second: .00615384616
      data:
        first:
          name: _BumpAmt
        second: 10
      data:
        first:
          name: _FadeDistance
        second: 67.8600006
      data:
        first:
          name: _RimPower
        second: 1.57792127
      data:
        first:
          name: _Glossiness
        second: .430051804
    m_Colors:
      data:
        first:
          name: _Color
        second: {r: 1, g: .599999964, b: 0, a: .858823538}
      data:
        first:
          name: _Emission
        second: {r: 1, g: 0, b: 0, a: 1}
      data:
        first:
          name: _SpecColor
        second: {r: 1, g: 1, b: 1, a: 1}
      data:
        first:
          name: _TintColor
        second: {r: 0, g: .328671455, b: 1, a: .984313726}
      data:
        first:
          name: _DistortParams
        second: {r: 1, g: 1, b: 2, a: 1.14999998}
      data:
        first:
          name: _InvFadeParemeter
        second: {r: .150000006, g: .150000006, b: .5, a: 1}
      data:
        first:
          name: _AnimationTiling
        second: {r: 2.20000005, g: 2.20000005, b: -1.10000002, a: -1.10000002}
      data:
        first:
          name: _AnimationDirection
        second: {r: 1, g: 1, b: 1, a: 1}
      data:
        first:
          name: _BumpTiling
        second: {r: 1, g: 1, b: -2, a: 3}
      data:
        first:
          name: _BumpDirection
        second: {r: 1, g: 1, b: -1, a: 1}
      data:
        first:
          name: _BaseColor
        second: {r: .540000021, g: .949999988, b: .99000001, a: .5}
      data:
        first:
          name: _ReflectionColor
        second: {r: .540000021, g: .949999988, b: .99000001, a: .5}
      data:
        first:
          name: _SpecularColor
        second: {r: .300699413, g: 1, b: 0, a: 1}
      data:
        first:
          name: _WorldLightDir
        second: {r: 0, g: .100000001, b: -.5, a: 0}
      data:
        first:
          name: _Foam
        second: {r: .100000001, g: .375, b: 0, a: 0}
      data:
        first:
          name: _GAmplitude
        second: {r: .300000012, g: .349999994, b: .25, a: .25}
      data:
        first:
          name: _GFrequency
        second: {r: 1.29999995, g: 1.35000002, b: 1.25, a: 1.25}
      data:
        first:
          name: _GSteepness
        second: {r: 1, g: 1, b: 1, a: 1}
      data:
        first:
          name: _GSpeed
        second: {r: 1.20000005, g: 1.375, b: 1.10000002, a: 1.5}
      data:
        first:
          name: _GDirectionAB
        second: {r: .300000012, g: .850000024, b: .850000024, a: .25}
      data:
        first:
          name: _GDirectionCD
        second: {r: .100000001, g: .899999976, b: .5, a: .5}
      data:
        first:
          name: _SpeedStrength
        second: {r: 1, g: 1, b: 1, a: 1}
      data:
        first:
          name: _OutlineColor
        second: {r: 1, g: 0, b: 0, a: 1}
      data:
        first:
          name: _EmisColor
        second: {r: .200000003, g: .200000003, b: .200000003, a: 0}
      data:
        first:
          name: _GlowColor
        second: {r: .594405651, g: 0, b: 1, a: 1}
      data:
        first:
          name: _sunpos
        second: {r: .5, g: .5, b: 0, a: 0}
      data:
        first:
          name: _params
        second: {r: .200000003, g: .899999976, b: .5, a: .899999976}
      data:
        first:
          name: _DiffuseColor
        second: {r: 1, g: 0, b: 0, a: 1}
      data:
        first:
          name: _RimColor
        second: {r: 0, g: .118881203, b: 1, a: 1}
